{
  "project_info": {
    "project_number": "718623731149",
    "firebase_url": "https://flutter-apps-ae161.firebaseio.com",
    "project_id": "flutter-apps-ae161",
    "storage_bucket": "flutter-apps-ae161.appspot.com"
  },
  "client": [
    {
      "client_info": {
        "mobilesdk_app_id": "1:718623731149:android:8f0d150fb9365bf9de2884",
        "android_client_info": {
          "package_name": "com.example.firebase"
        }
      },
      "oauth_client": [
        {
          "client_id": "718623731149-ud1g6ij7gin55t8opru7vrob6ip3o0vo.apps.googleusercontent.com",
          "client_type": 1,
          "android_info": {
            "package_name": "com.example.firebase",
            "certificate_hash": "f7709b7c4f8db905eb77e96c48265b5ac0903827"
          }
        },
        {
          "client_id": "718623731149-c6h641849e1pi81n9engof2cge8qi163.apps.googleusercontent.com",
          "client_type": 3
        }
      ],
      "api_key": [
        {
          "current_key": "AIzaSyCmxEH0-k0LELE__7CwJeGDeaX0r0vYy9Y"
        }
      ],
      "services": {
        "appinvite_service": {
          "other_platform_oauth_client": [
            {
              "client_id": "718623731149-c6h641849e1pi81n9engof2cge8qi163.apps.googleusercontent.com",
              "client_type": 3
            }
          ]
        }
      }
    },
    {
      "client_info": {
        "mobilesdk_app_id": "1:718623731149:android:a626ed074f758e2cde2884",
        "android_client_info": {
          "package_name": "com.example.firebase2"
        }
      },
      "oauth_client": [
        {
          "client_id": "718623731149-ohhnklcft3imjfblq90d20t7imsefv7m.apps.googleusercontent.com",
          "client_type": 1,
          "android_info": {
            "package_name": "com.example.firebase2",
            "certificate_hash": "f774ea1406db2d6e8d359439ba703c448b1ea320"
          }
        },
        {
          "client_id": "718623731149-c6h641849e1pi81n9engof2cge8qi163.apps.googleusercontent.com",
          "client_type": 3
        }
      ],
      "api_key": [
        {
          "current_key": "AIzaSyCmxEH0-k0LELE__7CwJeGDeaX0r0vYy9Y"
        }
      ],
      "services": {
        "appinvite_service": {
          "other_platform_oauth_client": [
            {
              "client_id": "718623731149-c6h641849e1pi81n9engof2cge8qi163.apps.googleusercontent.com",
              "client_type": 3
            }
          ]
        }
      }
    }
  ],
  "configuration_version": "1"
}